{
  "Dengue" : {
    "Sintoma" : "Febre",
    "Sintoma2" : "Manchas vermelhas",
    "Sintoma3" : "Vômitos"
  },
  "Depressão" : {
    "Sintoma" : "Ansiedade",
    "Sintoma2" : "Cansaço",
    "Sintoma3" : "Angústia",
    "Sintoma4" : "Insonia",
    "Sintoma5" : "Irritabilidade"
  },
  "Gripe" : {
    "Sintoma" : "Dor de cabeça",
    "Sintoma2" : "Febre",
    "Sintoma3" : "Calafrios"
  },
  "Insonia" : {
    "Sintoma" : "Dificuldade para dormir",
    "Sintoma2" : "Cansaço",
    "Sintoma3" : "Sonolência diurna",
    "Sintoma4" : "Ansiedade"
  },
  "Pressão alta" : {
    "Sintoma" : "Dor de cabeça",
    "Sintoma2" : "Dor na nuca",
    "Sintoma3" : "Dor no peito",
    "Sintoma4" : "Tontura",
    "Sintoma5" : "Falta de ar"
  }
}
